id;name;category;code
201;Incredible Leather Clock;Outdoors;CoolPromo494243
202;Heavy Duty Wooden Pants;Jewelry;OverwhelmingBounty293273
203;Rustic Granite Watch;Books & Toys;ExcitingBounty210734
204;Enormous Rubber Bench;Garden;ThrillingSavings721731
205;Durable Wooden Bag;Games;OverwhelmingBounty343604
206;Aerodynamic Marble Bag;Kids & Movies;ImpressiveDiscount665171
207;Small Plastic Clock;Clothing;ExcitingBonus766011
208;Awesome Wooden Bottle;Clothing;StunningSale102380
209;Fantastic Steel Wallet;Baby & Outdoors;UnbelievablePromotion545720
210;Heavy Duty Linen Computer;Sports;ImpressivePromo187027
211;Synergistic Steel Bag;Clothing & Outdoors;AmazingPromotion601407
212;Lightweight Concrete Wallet;Clothing;ExcitingCode337471
213;Enormous Steel Bag;Baby, Beauty & Movies;OverwhelmingBenefit088833
214;Incredible Leather Table;Clothing & Industrial;AmazingPrice201774
215;Aerodynamic Wool Computer;Baby;ExcitingPerk640766
216;Practical Linen Keyboard;Baby;WonderfulSale414264
217;Gorgeous Wool Wallet;Baby, Games & Jewelry;SurprisingDeal771157
218;Sleek Copper Clock;Automotive;AmazingSale950130
219;Ergonomic Bronze Pants;Clothing, Home & Sports;ImpressiveSavings471132
220;Sleek Cotton Knife;Tools;WonderfulRebate162018
221;Heavy Duty Linen Watch;Sports;BreathtakingCode301362
222;Synergistic Granite Plate;Computers, Grocery & Outdoors;WonderfulBonus694377
223;Ergonomic Leather Gloves;Health;ImpressivePromotion423137
224;Lightweight Silk Knife;Home;SpectacularPrice076188
225;Sleek Granite Shirt;Jewelry;MarvelousPromotion768067
226;Aerodynamic Leather Watch;Electronics, Movies & Sports;First-ClassPerk120320
227;Aerodynamic Paper Computer;Toys;ImpressivePromo508072
228;Practical Copper Gloves;Music;First-ClassPrice418891
229;Rustic Aluminum Lamp;Movies;MarvelousDiscount388040
230;Aerodynamic Wool Shoes;Movies;SurprisingBenefit932154
231;Synergistic Aluminum Bench;Garden & Toys;ExcitingSale670334
232;Synergistic Wool Watch;Music;SpecialPromo586597
233;Rustic Wooden Wallet;Grocery;AwesomePerk576844
234;Durable Iron Shirt;Industrial & Shoes;SpectacularDiscount478547
235;Incredible Linen Bag;Home;CoolPromotion845716
236;Practical Paper Clock;Garden & Movies;First-ClassSale187856
237;Lightweight Leather Shirt;Industrial;AwesomeWinning475025
238;Sleek Rubber Watch;Books;BreathtakingBonus553320
239;Lightweight Rubber Bottle;Automotive, Home & Kids;WonderfulDeal011486
240;Enormous Wool Pants;Computers & Garden;ImpressiveBonus581712
241;Aerodynamic Plastic Watch;Health, Jewelry & Outdoors;WonderfulBounty285315
242;Lightweight Copper Car;Home, Outdoors & Sports;OverwhelmingPrice849055
243;Sleek Copper Chair;Games;GreatPromotion844703
244;Gorgeous Wool Chair;Sports;StunningPerk697771
245;Sleek Steel Watch;Toys;AwesomeBenefit260541
246;Synergistic Silk Bottle;Computers, Games & Home;OverwhelmingBounty871216
247;Aerodynamic Concrete Chair;Beauty;SpecialDeal871837
248;Durable Linen Watch;Baby;First-ClassBonus408288
249;Durable Cotton Shoes;Industrial & Sports;UnbelievableDiscount327682
250;Practical Bronze Watch;Outdoors;SpectacularWinning896360
251;Intelligent Steel Keyboard;Jewelry;IncredibleRebate510083
252;Lightweight Concrete Bag;Books;BreathtakingPerk867586
253;Synergistic Cotton Car;Books & Industrial;GoodBonus275614
254;Rustic Leather Shoes;Computers & Jewelry;AmazingRebate892811
255;Awesome Paper Knife;Garden;MarvelousWinning301541
256;Fantastic Rubber Shirt;Automotive, Health & Kids;CoolBenefit930285
257;Synergistic Copper Table;Automotive;First-ClassCode284414
258;Lightweight Steel Wallet;Health;AwesomeBonus767700
259;Aerodynamic Cotton Lamp;Electronics & Kids;AwesomeBenefit516440
260;Sleek Granite Wallet;Computers, Kids & Music;ThrillingSale458174
261;Ergonomic Copper Wallet;Automotive;CoolPromotion515300
262;Lightweight Copper Pants;Grocery;SpecialSale368273
263;Heavy Duty Concrete Car;Sports;ThrillingPrice065504
264;Rustic Cotton Shoes;Beauty;First-ClassBonus275288
265;Intelligent Steel Lamp;Outdoors;StunningDiscount352933
266;Durable Iron Chair;Outdoors;SpecialCode778680
267;Enormous Copper Bottle;Electronics & Movies;BreathtakingPromo767649
268;Sleek Bronze Computer;Baby & Games;SpecialCode156417
269;Small Linen Bag;Tools;IncrediblePrice323268
270;Heavy Duty Concrete Bench;Kids, Movies & Music;ThrillingPromotion270728
271;Practical Bronze Watch;Games & Outdoors;MarvelousCode425066
272;Heavy Duty Granite Lamp;Garden & Home;SpectacularBounty308822
273;Ergonomic Iron Shirt;Automotive & Computers;GreatDiscount036252
274;Lightweight Wooden Bottle;Beauty;IncredibleSavings180285
275;Intelligent Bronze Watch;Electronics, Games & Sports;ExcitingPerk436081
276;Lightweight Cotton Pants;Automotive & Sports;UnbelievableBonus979127
277;Mediocre Rubber Gloves;Clothing;ThrillingCode236383
278;Incredible Rubber Coat;Automotive, Beauty & Games;UnbelievablePerk043318
279;Durable Granite Bottle;Books;ThrillingSale527563
280;Intelligent Rubber Computer;Movies;SurprisingPerk810192
281;Durable Silk Chair;Home;SpecialPrice465713
282;Practical Leather Car;Computers;OverwhelmingWinning295480
283;Durable Cotton Hat;Games;IncrediblePrice325415
284;Awesome Linen Bag;Automotive;GreatReward322038
285;Mediocre Copper Shirt;Tools;IncredibleWinning001500
286;Intelligent Iron Table;Clothing;ImpressiveBenefit684239
287;Incredible Linen Coat;Clothing & Industrial;SpecialPerk688928
288;Gorgeous Aluminum Hat;Clothing, Computers & Outdoors;ExcitingPromotion977521
289;Practical Wooden Watch;Clothing;BreathtakingRebate129003
290;Practical Linen Bench;Garden, Grocery & Music;ThrillingPerk757635
291;Practical Paper Pants;Electronics;StunningBonus014539
292;Rustic Steel Table;Clothing, Home & Industrial;BreathtakingReward406115
293;Heavy Duty Cotton Bench;Computers;First-ClassPromotion431891
294;Enormous Aluminum Car;Clothing & Grocery;IncredibleBounty621182
295;Aerodynamic Linen Computer;Games, Grocery & Sports;GoodDeal156607
296;Lightweight Steel Coat;Computers & Music;StunningCode282572
297;Sleek Aluminum Plate;Health & Movies;SurprisingSavings202820
298;Incredible Linen Computer;Home;AmazingBounty855696
299;Rustic Iron Coat;Clothing;GreatPromo460838
300;Gorgeous Leather Shoes;Books & Sports;BreathtakingSale049996
301;Aerodynamic Linen Knife;Toys;StunningWinning514436
302;Incredible Rubber Keyboard;Automotive, Computers & Home;GoodBonus117617
303;Intelligent Aluminum Wallet;Beauty, Books & Sports;OverwhelmingBonus387518
304;Durable Cotton Lamp;Computers;SurprisingPerk534666
305;Heavy Duty Granite Shirt;Clothing;SurprisingBenefit882630
306;Fantastic Wooden Car;Electronics & Health;UnbelievableDiscount646131
307;Rustic Concrete Watch;Grocery;SpectacularBonus135003
308;Mediocre Iron Bag;Automotive;GoodBenefit776442
309;Enormous Iron Pants;Beauty;AwesomeCode890328
310;Awesome Linen Wallet;Automotive, Garden & Tools;StunningPromo528360
311;Rustic Wool Gloves;Jewelry;MarvelousPromotion776684
312;Intelligent Silk Bench;Clothing;AmazingPerk370933
313;Ergonomic Concrete Coat;Baby, Industrial & Music;SurprisingBounty582109
314;Fantastic Aluminum Bag;Automotive, Electronics & Home;AwesomeCode261305
315;Mediocre Plastic Bottle;Kids;SurprisingSale452464
316;Aerodynamic Bronze Shoes;Beauty & Industrial;First-ClassSale582984
317;Heavy Duty Cotton Plate;Computers;SpecialDeal764020
318;Sleek Concrete Car;Clothing, Computers & Tools;First-ClassBounty543123
319;Mediocre Copper Computer;Computers, Home & Sports;StunningSale488270
320;Heavy Duty Granite Coat;Books, Garden & Music;GoodSavings496717
321;Rustic Granite Clock;Shoes;ExcitingBenefit077184
322;Enormous Linen Clock;Automotive & Tools;BreathtakingBounty465364
323;Practical Aluminum Coat;Kids;OverwhelmingBounty269701
324;Fantastic Bronze Plate;Beauty & Toys;SpectacularDeal834014
325;Aerodynamic Linen Knife;Computers;AwesomeRebate568737
326;Small Copper Pants;Beauty, Clothing & Movies;SurprisingPromo617666
327;Heavy Duty Granite Car;Music & Outdoors;CoolRebate475244
328;Fantastic Steel Coat;Baby;SurprisingPromotion525695
329;Rustic Silk Car;Grocery, Health & Kids;ExcitingPromo858940
330;Practical Wooden Shirt;Computers, Kids & Sports;AmazingBounty218684
331;Mediocre Marble Plate;Books & Garden;ImpressiveReward340372
332;Small Concrete Hat;Beauty;WonderfulRebate448666
333;Small Marble Bench;Baby & Sports;AwesomeReward348876
334;Enormous Wool Bench;Electronics;SurprisingPromotion874742
335;Mediocre Wooden Chair;Books;UnbelievableRebate606180
336;Incredible Wooden Bag;Computers & Outdoors;SpecialPerk746251
337;Fantastic Aluminum Bottle;Clothing & Home;MarvelousPromotion795355
338;Synergistic Cotton Hat;Baby, Computers & Electronics;WonderfulSavings490123
339;Ergonomic Marble Knife;Garden & Jewelry;IncredibleDiscount768401
340;Aerodynamic Leather Bag;Beauty, Games & Outdoors;AwesomeReward573573
341;Aerodynamic Bronze Table;Games & Shoes;IncredibleRebate587221
342;Awesome Silk Pants;Clothing & Outdoors;ImpressivePromotion125583
343;Small Linen Gloves;Books & Sports;ThrillingPromo301364
344;Rustic Marble Bag;Toys;WonderfulReward651260
345;Durable Wooden Hat;Computers;MarvelousPromo544665
346;Ergonomic Copper Wallet;Health;MarvelousDeal665211
347;Small Concrete Computer;Beauty, Outdoors & Toys;IncredibleCode065551
348;Rustic Wool Shoes;Computers;AwesomeBenefit122273
349;Sleek Linen Lamp;Clothing;IncrediblePromo581598
350;Lightweight Cotton Lamp;Health;CoolWinning282286
351;Intelligent Silk Bottle;Movies;BreathtakingBounty023722
352;Gorgeous Steel Bag;Books & Computers;GreatRebate402524
353;Lightweight Marble Keyboard;Grocery, Music & Sports;AwesomeReward638450
354;Synergistic Cotton Clock;Sports;MarvelousBenefit406770
355;Sleek Leather Hat;Home & Movies;IncredibleBenefit163867
356;Enormous Wool Bottle;Outdoors;SurprisingSale557343
357;Incredible Paper Watch;Games, Jewelry & Kids;OverwhelmingPromotion308381
358;Rustic Wool Wallet;Health & Toys;GreatSavings797266
359;Ergonomic Leather Bench;Grocery, Home & Outdoors;IncrediblePerk471736
360;Synergistic Granite Hat;Movies, Music & Outdoors;IncredibleSavings071586
361;Heavy Duty Paper Chair;Outdoors;ExcitingPromo036168
362;Ergonomic Rubber Bottle;Clothing;ThrillingWinning977045
363;Durable Aluminum Watch;Books, Computers & Home;BreathtakingBounty221038
364;Aerodynamic Leather Wallet;Books & Garden;SurprisingSavings769954
365;Rustic Cotton Computer;Baby, Garden & Sports;AmazingSavings474373
366;Enormous Cotton Clock;Music;AmazingSale347478
367;Rustic Linen Clock;Clothing, Games & Health;StunningReward151655
368;Intelligent Cotton Clock;Tools;IncredibleReward852251
369;Lightweight Paper Bench;Clothing & Outdoors;ImpressiveCode088150
370;Aerodynamic Rubber Clock;Baby, Clothing & Computers;SpectacularSale352366
371;Fantastic Steel Gloves;Automotive & Clothing;ExcitingRebate815258
372;Awesome Linen Keyboard;Garden & Health;BreathtakingWinning396163
373;Lightweight Silk Computer;Computers & Outdoors;CoolDeal667381
374;Gorgeous Leather Knife;Outdoors & Sports;OverwhelmingSale717484
375;Fantastic Wooden Pants;Garden, Jewelry & Sports;ThrillingDeal240840
376;Durable Iron Bag;Automotive, Computers & Games;MarvelousSale218723
377;Durable Steel Clock;Garden;BreathtakingWinning207824
378;Intelligent Cotton Shoes;Kids;GoodPrice818076
379;Practical Copper Bottle;Computers;ImpressiveSale521758
380;Synergistic Concrete Table;Baby, Music & Sports;SpectacularBounty331276
381;Aerodynamic Wooden Pants;Books;OverwhelmingSale072213
382;Mediocre Marble Car;Industrial & Jewelry;MarvelousSale229414
383;Awesome Granite Plate;Industrial, Jewelry & Tools;AwesomePromotion546767
384;Durable Linen Keyboard;Automotive, Home & Movies;First-ClassReward608818
385;Aerodynamic Iron Computer;Games;AmazingPromo912140
386;Lightweight Silk Table;Movies & Shoes;SpectacularPromotion414829
387;Intelligent Aluminum Coat;Beauty & Health;ExcitingDeal312504
388;Sleek Wooden Shirt;Electronics;SpectacularDeal530866
389;Fantastic Plastic Bottle;Outdoors;CoolPerk265685
390;Durable Linen Knife;Baby;GreatBenefit584706
391;Durable Cotton Bottle;Clothing;SpecialRebate276217
392;Durable Iron Wallet;Computers & Toys;AwesomeReward028609
393;Rustic Leather Pants;Beauty & Tools;First-ClassReward396055
394;Intelligent Marble Bench;Garden & Industrial;AmazingBonus471217
395;Practical Concrete Plate;Beauty;ThrillingPrice408048
396;Durable Copper Bench;Health, Jewelry & Movies;ExcitingSavings197371
397;Intelligent Wool Keyboard;Garden & Shoes;SpectacularPrice794436
398;Aerodynamic Copper Gloves;Clothing, Computers & Shoes;ExcitingDiscount142164
399;Intelligent Wooden Watch;Jewelry, Movies & Shoes;IncredibleRebate202608
400;Synergistic Cotton Bottle;Automotive & Clothing;MarvelousWinning219103
